{
  "id": "io.cloudron.surfer",
  "title": "Surfer",
  "author": "Cloudron Team",
  "description": "file://DESCRIPTION.md",
  "tagline": "Static file server",
  "tags": [
    "fileserver",
    "webserver",
    "hosting",
    "server"
  ],
  "version": "5.9.1",
  "healthCheckPath": "/api/healthcheck",
  "httpPort": 3000,
  "manifestVersion": 2,
  "minBoxVersion": "4.1.4",
  "website": "https://git.cloudron.io/cloudron/surfer",
  "documentationUrl": "https://cloudron.io/documentation/apps/surfer/",
  "contactEmail": "support@cloudron.io",
  "icon": "logo.png",
  "addons": {
    "ldap": {},
    "localstorage": {
      "ftp": {
        "uid": 1000,
        "uname": "cloudron"
      }
    }
  },
  "mediaLinks": [
    "https://s3.amazonaws.com/cloudron-app-screenshots/io.cloudron.surfer/645cb5c8b40d99355d83555d0c3a40afb1b4d754/img01.png",
    "https://s3.amazonaws.com/cloudron-app-screenshots/io.cloudron.surfer/645cb5c8b40d99355d83555d0c3a40afb1b4d754/img02.png",
    "https://s3.amazonaws.com/cloudron-app-screenshots/io.cloudron.surfer/645cb5c8b40d99355d83555d0c3a40afb1b4d754/img03.png"
  ],
  "changelog": "file://CHANGELOG",
  "postInstallMessage": "file://POSTINSTALL.md"
}
